{"data":[{"id":3,"documentId":"ykndqno228hgdgezh4twrd32","name":"ImpossibleToPossible","description":"Based on kids grade provide seems impossible but its possible content under this topic","createdAt":"2025-11-29T12:31:51.681Z","updatedAt":"2025-11-29T12:32:26.632Z","publishedAt":"2025-11-29T12:32:26.646Z","icon":null},{"id":5,"documentId":"nwrm9dm201bio8cof4ee4gi0","name":"ImpossibleToPossible","description":"Learn about ImpossibleToPossible","createdAt":"2025-11-29T13:06:35.664Z","updatedAt":"2025-11-29T13:06:35.664Z","publishedAt":"2025-11-29T13:06:35.680Z","icon":null},{"id":7,"documentId":"dg4iupnarary9v48bclz8ih5","name":"magicofScience","description":"Learn about magicofScience","createdAt":"2025-11-29T13:06:36.754Z","updatedAt":"2025-11-29T13:06:36.754Z","publishedAt":"2025-11-29T13:06:36.763Z","icon":null},{"id":9,"documentId":"dhx4g5puyhuqdn5xdsyjxhpy","name":"MindCalculation","description":"Learn about MindCalculation","createdAt":"2025-11-29T13:06:37.683Z","updatedAt":"2025-11-29T13:06:37.683Z","publishedAt":"2025-11-29T13:06:37.692Z","icon":null},{"id":11,"documentId":"yk023zeyr0271rkj0kfuhwij","name":"History","description":"Learn about History","createdAt":"2025-11-29T13:06:39.314Z","updatedAt":"2025-11-29T13:06:39.314Z","publishedAt":"2025-11-29T13:06:39.321Z","icon":null},{"id":13,"documentId":"n16cfiy5u5xfb78kg2wb8bkl","name":"Geography","description":"Learn about Geography","createdAt":"2025-11-29T13:06:44.204Z","updatedAt":"2025-11-29T13:06:44.204Z","publishedAt":"2025-11-29T13:06:44.210Z","icon":null},{"id":15,"documentId":"xcs4kpqskn92n49ilaevi7dh","name":"state","description":"Learn about state","createdAt":"2025-11-29T13:06:46.027Z","updatedAt":"2025-11-29T13:06:46.027Z","publishedAt":"2025-11-29T13:06:46.035Z","icon":null},{"id":17,"documentId":"zbbkowy2j8onyxwn7zp64ujk","name":"country","description":"Learn about country","createdAt":"2025-11-29T13:06:47.787Z","updatedAt":"2025-11-29T13:06:47.787Z","publishedAt":"2025-11-29T13:06:47.793Z","icon":null},{"id":19,"documentId":"l68g7xood7qgn4ddirrbhbyq","name":"animal","description":"Learn about animal","createdAt":"2025-11-29T13:06:52.702Z","updatedAt":"2025-11-29T13:06:52.702Z","publishedAt":"2025-11-29T13:06:52.714Z","icon":null},{"id":21,"documentId":"euqjq2v0xzzrcd93cdcfw1jg","name":"hospital&Doctors","description":"Learn about hospital&Doctors","createdAt":"2025-11-29T13:06:54.872Z","updatedAt":"2025-11-29T13:06:54.872Z","publishedAt":"2025-11-29T13:06:54.880Z","icon":null},{"id":23,"documentId":"eh7205rp778j9lctag4g0gum","name":"Waste2Best","description":"Learn about Waste2Best","createdAt":"2025-11-29T13:06:55.940Z","updatedAt":"2025-11-29T13:06:55.940Z","publishedAt":"2025-11-29T13:06:55.948Z","icon":null},{"id":25,"documentId":"lwq2f8ilie89p7jt26k4el6j","name":"ProductOfWaste","description":"Learn about ProductOfWaste","createdAt":"2025-11-29T13:06:57.725Z","updatedAt":"2025-11-29T13:06:57.725Z","publishedAt":"2025-11-29T13:06:57.809Z","icon":null},{"id":27,"documentId":"q9krtk39qjvuw4mwswyiwsqp","name":"Navodaya","description":"Learn about Navodaya","createdAt":"2025-11-29T13:06:59.689Z","updatedAt":"2025-11-29T13:06:59.689Z","publishedAt":"2025-11-29T13:06:59.696Z","icon":null},{"id":29,"documentId":"ilgbnuykwkhriamjusjz8sld","name":"Olympiads","description":"Learn about Olympiads","createdAt":"2025-11-29T13:07:01.550Z","updatedAt":"2025-11-29T13:07:01.550Z","publishedAt":"2025-11-29T13:07:01.556Z","icon":null},{"id":31,"documentId":"vaxu4qv3udwb0upezp43dkgg","name":"Science","description":"Learn about Science","createdAt":"2025-11-29T13:07:03.659Z","updatedAt":"2025-11-29T13:07:03.659Z","publishedAt":"2025-11-29T13:07:03.665Z","icon":null},{"id":33,"documentId":"k7nlr69r160cjfyf3yrtrgq4","name":"GK","description":"Learn about GK","createdAt":"2025-11-29T13:07:05.428Z","updatedAt":"2025-11-29T13:07:05.428Z","publishedAt":"2025-11-29T13:07:05.437Z","icon":null},{"id":35,"documentId":"ptdaqrbuz32jtatradr582r0","name":"DIY","description":"Learn about DIY","createdAt":"2025-11-29T13:07:07.285Z","updatedAt":"2025-11-29T13:07:07.285Z","publishedAt":"2025-11-29T13:07:07.291Z","icon":null},{"id":37,"documentId":"v9tz0u9bqmaschqmnuevq6ic","name":"ThoughOftheDay","description":"Learn about ThoughOftheDay","createdAt":"2025-11-29T13:07:09.052Z","updatedAt":"2025-11-29T13:07:09.052Z","publishedAt":"2025-11-29T13:07:09.058Z","icon":null},{"id":39,"documentId":"we9wlbwojvd9c3r2jinirkle","name":"Puzzle","description":"Learn about Puzzle","createdAt":"2025-11-29T13:07:10.815Z","updatedAt":"2025-11-29T13:07:10.815Z","publishedAt":"2025-11-29T13:07:10.821Z","icon":null},{"id":41,"documentId":"k6ucfgsco0uyfsmtee7f1u8m","name":"moral","description":"Learn about moral","createdAt":"2025-11-29T13:07:12.702Z","updatedAt":"2025-11-29T13:07:12.702Z","publishedAt":"2025-11-29T13:07:12.716Z","icon":null},{"id":43,"documentId":"z180dtkgnwdylxeqr5a5o88a","name":"motivation","description":"Learn about motivation","createdAt":"2025-11-29T13:07:14.658Z","updatedAt":"2025-11-29T13:07:14.658Z","publishedAt":"2025-11-29T13:07:14.666Z","icon":null},{"id":45,"documentId":"fzqcje28qe731tuxcnn0fs0w","name":"isnpiring","description":"Learn about isnpiring","createdAt":"2025-11-29T13:07:16.513Z","updatedAt":"2025-11-29T13:07:16.513Z","publishedAt":"2025-11-29T13:07:16.520Z","icon":null},{"id":47,"documentId":"mzgmujkq4yhyfw5su4eb5u5l","name":"Ages","description":"Learn about Ages","createdAt":"2025-12-02T06:27:49.724Z","updatedAt":"2025-12-02T06:27:49.724Z","publishedAt":"2025-12-02T06:27:49.756Z","icon":"👨‍👩‍👦"},{"id":49,"documentId":"mqx4skx6t0eft9qvkdoqimjh","name":"Average","description":"Learn about Average","createdAt":"2025-12-02T06:27:50.021Z","updatedAt":"2025-12-02T06:27:50.021Z","publishedAt":"2025-12-02T06:27:50.032Z","icon":"📊"},{"id":51,"documentId":"suhojsuaeypvrhu0jthyli5k","name":"Percentage","description":"Learn about Percentage","createdAt":"2025-12-02T06:27:50.271Z","updatedAt":"2025-12-02T06:27:50.271Z","publishedAt":"2025-12-02T06:27:50.281Z","icon":"💯"}],"meta":{"pagination":{"page":1,"pageSize":25,"pageCount":4,"total":99}}}